ML for Public Health hw2
…
#manipulate data types
hw2 <- hw2 %>% mutate_if(is.character, as.factor)
hw2

## # A tibble: 914 x 126
##         Y    X1     X2     X3    X4    X5     X6     X7     X8     X9    X10
##     <dbl> <dbl>  <dbl>  <dbl> <dbl> <dbl>  <dbl>  <dbl>  <dbl>  <dbl>  <dbl>
##  1  3.50   -0.5  0.194 -3.00   -2.5 0.478 -0.936  1.08  -2.03   0.743 -0.978
##  2 33.1    -0.3 -2.64  -0.779   1.3 0.42   1.81   2.39   0.14  -1.42  -4.82 
##  3 -0.949  -0.6  2.47   1.36    0.8 0.561 -2.61  -0.145  3.48  -1.20   0.861
##  4 -6.43   -3.3  0.229 -3.60    5.2 0.424 -0.98   1.67  -1.08   0.392 -1.58 
##  5 31.9    -1.5  1.12   2.47    2.2 0.553  0.81   1.17  -0.971  0.2    0.482
##  6 21.2    -3.2  2.26   0.368  -0.7 0.425  0.347 -0.601 -0.806 -0.41  -2.82 
##  7 15.7     1.1 -1.29   2.16    1.3 0.571  2.15  -1.02   0.218 -3.69   1.67 
##  8  9.13   -0.1 -0.967  1.86   -1.7 0.507 -1.54   0.103 -0.2   -3.68   0.987
##  9 21.6     2.6  1.23  -0.762  -0.5 0.519  0.431 -1.07   2.44  -1.14  -2.12 
## 10 -8.09    0.2  2.50   0.864   0.1 0.573  1.87  -3.43  -2.46   0.925 -2.24 
## # ... with 904 more rows, and 115 more variables: X11 <dbl>, X12 <dbl>,
## #   X13 <dbl>, X14 <dbl>, X15 <dbl>, X16 <dbl>, X17 <dbl>, X18 <dbl>,
## #   X19 <dbl>, X20 <dbl>, X21 <dbl>, X22 <dbl>, X23 <dbl>, X24 <dbl>,
## #   X25 <dbl>, X26 <dbl>, X27 <dbl>, X28 <dbl>, X29 <dbl>, X30 <dbl>,
## #   X31 <dbl>, X32 <dbl>, X33 <dbl>, X34 <dbl>, X35 <dbl>, X36 <dbl>,
## #   X37 <dbl>, X38 <dbl>, X39 <dbl>, X40 <dbl>, X41 <dbl>, X42 <dbl>,
## #   X43 <dbl>, X44 <dbl>, X45 <dbl>, X46 <dbl>, X47 <dbl>, X48 <dbl>, ...

levels(hw2$X93)

## [1] "A" "B" "C"

levels(hw2$X119)

## [1] "A" "B" "C" "D"

mutate(hw2, X93 = as.factor(ifelse(X93 == 'A', 1,
                         ifelse(X93 == 'B', 2,
                         ifelse(X93 == 'C', 3, NA)))))

## # A tibble: 914 x 126
##         Y    X1     X2     X3    X4    X5     X6     X7     X8     X9    X10
##     <dbl> <dbl>  <dbl>  <dbl> <dbl> <dbl>  <dbl>  <dbl>  <dbl>  <dbl>  <dbl>
##  1  3.50   -0.5  0.194 -3.00   -2.5 0.478 -0.936  1.08  -2.03   0.743 -0.978
##  2 33.1    -0.3 -2.64  -0.779   1.3 0.42   1.81   2.39   0.14  -1.42  -4.82 
##  3 -0.949  -0.6  2.47   1.36    0.8 0.561 -2.61  -0.145  3.48  -1.20   0.861
##  4 -6.43   -3.3  0.229 -3.60    5.2 0.424 -0.98   1.67  -1.08   0.392 -1.58 
##  5 31.9    -1.5  1.12   2.47    2.2 0.553  0.81   1.17  -0.971  0.2    0.482
##  6 21.2    -3.2  2.26   0.368  -0.7 0.425  0.347 -0.601 -0.806 -0.41  -2.82 
##  7 15.7     1.1 -1.29   2.16    1.3 0.571  2.15  -1.02   0.218 -3.69   1.67 
##  8  9.13   -0.1 -0.967  1.86   -1.7 0.507 -1.54   0.103 -0.2   -3.68   0.987
##  9 21.6     2.6  1.23  -0.762  -0.5 0.519  0.431 -1.07   2.44  -1.14  -2.12 
## 10 -8.09    0.2  2.50   0.864   0.1 0.573  1.87  -3.43  -2.46   0.925 -2.24 
## # ... with 904 more rows, and 115 more variables: X11 <dbl>, X12 <dbl>,
## #   X13 <dbl>, X14 <dbl>, X15 <dbl>, X16 <dbl>, X17 <dbl>, X18 <dbl>,
## #   X19 <dbl>, X20 <dbl>, X21 <dbl>, X22 <dbl>, X23 <dbl>, X24 <dbl>,
## #   X25 <dbl>, X26 <dbl>, X27 <dbl>, X28 <dbl>, X29 <dbl>, X30 <dbl>,
## #   X31 <dbl>, X32 <dbl>, X33 <dbl>, X34 <dbl>, X35 <dbl>, X36 <dbl>,
## #   X37 <dbl>, X38 <dbl>, X39 <dbl>, X40 <dbl>, X41 <dbl>, X42 <dbl>,
## #   X43 <dbl>, X44 <dbl>, X45 <dbl>, X46 <dbl>, X47 <dbl>, X48 <dbl>, ...

mutate(hw2, X119 = as.factor(ifelse(X119 == 'A', 1,
                         ifelse(X119 == 'B', 2,
                         ifelse(X119 == 'C', 3, 
                         ifelse(X119 == 'D', 4, NA))))))

## # A tibble: 914 x 126
##         Y    X1     X2     X3    X4    X5     X6     X7     X8     X9    X10
##     <dbl> <dbl>  <dbl>  <dbl> <dbl> <dbl>  <dbl>  <dbl>  <dbl>  <dbl>  <dbl>
##  1  3.50   -0.5  0.194 -3.00   -2.5 0.478 -0.936  1.08  -2.03   0.743 -0.978
##  2 33.1    -0.3 -2.64  -0.779   1.3 0.42   1.81   2.39   0.14  -1.42  -4.82 
##  3 -0.949  -0.6  2.47   1.36    0.8 0.561 -2.61  -0.145  3.48  -1.20   0.861
##  4 -6.43   -3.3  0.229 -3.60    5.2 0.424 -0.98   1.67  -1.08   0.392 -1.58 
##  5 31.9    -1.5  1.12   2.47    2.2 0.553  0.81   1.17  -0.971  0.2    0.482
##  6 21.2    -3.2  2.26   0.368  -0.7 0.425  0.347 -0.601 -0.806 -0.41  -2.82 
##  7 15.7     1.1 -1.29   2.16    1.3 0.571  2.15  -1.02   0.218 -3.69   1.67 
##  8  9.13   -0.1 -0.967  1.86   -1.7 0.507 -1.54   0.103 -0.2   -3.68   0.987
##  9 21.6     2.6  1.23  -0.762  -0.5 0.519  0.431 -1.07   2.44  -1.14  -2.12 
## 10 -8.09    0.2  2.50   0.864   0.1 0.573  1.87  -3.43  -2.46   0.925 -2.24 
## # ... with 904 more rows, and 115 more variables: X11 <dbl>, X12 <dbl>,
## #   X13 <dbl>, X14 <dbl>, X15 <dbl>, X16 <dbl>, X17 <dbl>, X18 <dbl>,
## #   X19 <dbl>, X20 <dbl>, X21 <dbl>, X22 <dbl>, X23 <dbl>, X24 <dbl>,
## #   X25 <dbl>, X26 <dbl>, X27 <dbl>, X28 <dbl>, X29 <dbl>, X30 <dbl>,
## #   X31 <dbl>, X32 <dbl>, X33 <dbl>, X34 <dbl>, X35 <dbl>, X36 <dbl>,
## #   X37 <dbl>, X38 <dbl>, X39 <dbl>, X40 <dbl>, X41 <dbl>, X42 <dbl>,
## #   X43 <dbl>, X44 <dbl>, X45 <dbl>, X46 <dbl>, X47 <dbl>, X48 <dbl>, ...
…
